"Date and Time","Sensor 1","Sensor 2","Sensor 3","Sensor 4","Sensor 5","Sensor 6"
"2020-02-07 00:00:00-2020-02-07 00:00:00",0,0,0,0,0,0
"2020-02-07 00:00:00-2020-02-07 00:02:00",0,0,382,0,0,0
"2020-02-07 00:02:00-2020-02-07 00:04:00",0,0,0,0,0,0
"2020-02-07 00:04:00-2020-02-07 00:06:00",0,0,0,0,0,0
"2020-02-07 00:06:00-2020-02-07 00:08:00",0,0,0,1,0,0
"2020-02-07 00:08:00-2020-02-07 00:10:00",0,0,0,1,0,0
"2020-02-07 00:10:00-2020-02-07 00:12:00",0,0,0,0,0,0
"2020-02-07 00:12:00-2020-02-07 00:14:00",0,0,0,0,0,0
"2020-02-07 00:14:00-2020-02-07 00:16:00",2,0,0,0,0,0
"2020-02-07 00:16:00-2020-02-07 00:18:00",0,0,0,0,0,0
"2020-02-07 00:18:00-2020-02-07 00:20:00",0,0,0,0,0,0
"2020-02-07 00:20:00-2020-02-07 00:22:00",0,0,0,0,0,0
"2020-02-07 00:22:00-2020-02-07 00:24:00",0,0,0,0,0,0
"2020-02-07 00:24:00-2020-02-07 00:26:00",0,0,0,0,0,0
"2020-02-07 00:26:00-2020-02-07 00:28:00",0,0,0,0,0,0
"2020-02-07 00:28:00-2020-02-07 00:30:00",0,0,0,0,0,0
"2020-02-07 00:30:00-2020-02-07 00:32:00",0,0,0,0,0,0
"2020-02-07 00:32:00-2020-02-07 00:34:00",0,926,0,0,0,0
"2020-02-07 00:34:00-2020-02-07 00:36:00",0,522,1334,0,0,0
"2020-02-07 00:36:00-2020-02-07 00:38:00",0,0,0,0,0,0
"2020-02-07 00:38:00-2020-02-07 00:40:00",0,0,0,0,0,0
"2020-02-07 00:40:00-2020-02-07 00:42:00",0,0,0,0,0,0
"2020-02-07 00:42:00-2020-02-07 00:44:00",0,0,0,0,0,0
"2020-02-07 00:44:00-2020-02-07 00:46:00",0,0,0,0,0,0
"2020-02-07 00:46:00-2020-02-07 00:48:00",0,0,0,0,0,0
"2020-02-07 00:48:00-2020-02-07 00:50:00",0,0,0,0,0,0
"2020-02-07 00:50:00-2020-02-07 00:52:00",0,0,0,0,0,0
"2020-02-07 00:52:00-2020-02-07 00:54:00",0,0,0,0,0,0
"2020-02-07 00:54:00-2020-02-07 00:56:00",0,0,0,0,0,0
"2020-02-07 00:56:00-2020-02-07 00:58:00",0,0,0,0,0,0
"2020-02-07 00:58:00-2020-02-07 01:00:00",0,0,0,0,0,0
"2020-02-07 01:00:00-2020-02-07 01:02:00",0,0,0,0,0,0
"2020-02-07 01:02:00-2020-02-07 01:04:00",0,0,0,0,0,0
"2020-02-07 01:04:00-2020-02-07 01:06:00",0,0,0,0,0,0
"2020-02-07 01:06:00-2020-02-07 01:08:00",0,0,0,0,0,0
"2020-02-07 01:08:00-2020-02-07 01:10:00",0,0,0,0,0,0
"2020-02-07 01:10:00-2020-02-07 01:12:00",0,0,0,0,0,0
"2020-02-07 01:12:00-2020-02-07 01:14:00",0,0,0,0,0,0
"2020-02-07 01:14:00-2020-02-07 01:16:00",0,0,0,0,0,0
"2020-02-07 01:16:00-2020-02-07 01:18:00",0,0,0,0,0,0
"2020-02-07 01:18:00-2020-02-07 01:20:00",0,0,0,0,0,0
"2020-02-07 01:20:00-2020-02-07 01:22:00",0,0,0,0,0,0
"2020-02-07 01:22:00-2020-02-07 01:24:00",0,0,0,0,0,0
"2020-02-07 01:24:00-2020-02-07 01:26:00",0,0,0,0,0,0
"2020-02-07 01:26:00-2020-02-07 01:28:00",0,0,0,0,0,0
"2020-02-07 01:28:00-2020-02-07 01:30:00",0,0,0,0,0,0
"2020-02-07 01:30:00-2020-02-07 01:32:00",14,0,0,0,0,0
"2020-02-07 01:32:00-2020-02-07 01:34:00",0,0,0,0,0,0
"2020-02-07 01:34:00-2020-02-07 01:36:00",0,0,0,0,0,0
"2020-02-07 01:36:00-2020-02-07 01:38:00",0,0,0,0,0,0
"2020-02-07 01:38:00-2020-02-07 01:40:00",0,0,0,0,0,0
"2020-02-07 01:40:00-2020-02-07 01:42:00",0,0,0,0,0,0
"2020-02-07 01:42:00-2020-02-07 01:44:00",0,0,0,0,0,0
"2020-02-07 01:44:00-2020-02-07 01:46:00",0,0,0,0,0,0
"2020-02-07 01:46:00-2020-02-07 01:48:00",0,0,0,0,0,0
"2020-02-07 01:48:00-2020-02-07 01:50:00",0,0,0,0,0,0
"2020-02-07 01:50:00-2020-02-07 01:52:00",0,0,0,0,0,0
"2020-02-07 01:52:00-2020-02-07 01:54:00",0,0,0,0,0,0
"2020-02-07 01:54:00-2020-02-07 01:56:00",0,0,0,0,0,0
"2020-02-07 01:56:00-2020-02-07 01:58:00",0,0,0,0,0,0
"2020-02-07 01:58:00-2020-02-07 02:00:00",0,0,0,0,0,0
"2020-02-07 02:00:00-2020-02-07 02:02:00",0,0,0,0,0,0
"2020-02-07 02:02:00-2020-02-07 02:04:00",0,0,0,0,0,0
"2020-02-07 02:04:00-2020-02-07 02:06:00",0,0,0,0,0,0
"2020-02-07 02:06:00-2020-02-07 02:08:00",0,0,0,0,0,0
"2020-02-07 02:08:00-2020-02-07 02:10:00",0,0,0,0,0,0
"2020-02-07 02:10:00-2020-02-07 02:12:00",0,0,0,0,0,0
"2020-02-07 02:12:00-2020-02-07 02:14:00",0,0,0,0,0,0
"2020-02-07 02:14:00-2020-02-07 02:16:00",0,0,0,0,0,0
"2020-02-07 02:16:00-2020-02-07 02:18:00",0,0,0,0,0,0
"2020-02-07 02:18:00-2020-02-07 02:20:00",0,0,0,0,0,0
"2020-02-07 02:20:00-2020-02-07 02:22:00",0,0,0,0,0,0
"2020-02-07 02:22:00-2020-02-07 02:24:00",1,0,0,0,0,0
"2020-02-07 02:24:00-2020-02-07 02:26:00",0,0,0,0,0,0
"2020-02-07 02:26:00-2020-02-07 02:28:00",0,0,0,0,0,0
"2020-02-07 02:28:00-2020-02-07 02:30:00",0,0,0,0,0,0
"2020-02-07 02:30:00-2020-02-07 02:32:00",0,0,0,0,0,0
"2020-02-07 02:32:00-2020-02-07 02:34:00",0,0,0,0,0,0
"2020-02-07 02:34:00-2020-02-07 02:36:00",0,0,0,0,0,0
"2020-02-07 02:36:00-2020-02-07 02:38:00",0,0,0,0,0,0
"2020-02-07 02:38:00-2020-02-07 02:40:00",0,0,0,0,0,0
"2020-02-07 02:40:00-2020-02-07 02:42:00",0,0,0,0,0,0
"2020-02-07 02:42:00-2020-02-07 02:44:00",0,0,0,0,0,0
"2020-02-07 02:44:00-2020-02-07 02:46:00",0,0,0,0,0,0
"2020-02-07 02:46:00-2020-02-07 02:48:00",0,0,0,0,0,0
"2020-02-07 02:48:00-2020-02-07 02:50:00",0,0,0,0,0,0
"2020-02-07 02:50:00-2020-02-07 02:52:00",0,0,0,0,0,0
"2020-02-07 02:52:00-2020-02-07 02:54:00",0,0,0,0,0,0
"2020-02-07 02:54:00-2020-02-07 02:56:00",0,0,0,0,0,0
"2020-02-07 02:56:00-2020-02-07 02:58:00",0,0,0,0,0,0
"2020-02-07 02:58:00-2020-02-07 03:00:00",0,0,0,0,0,0
"2020-02-07 03:00:00-2020-02-07 03:02:00",0,0,0,0,0,0
"2020-02-07 03:02:00-2020-02-07 03:04:00",0,0,0,0,0,0
"2020-02-07 03:04:00-2020-02-07 03:06:00",0,0,0,0,0,0
"2020-02-07 03:06:00-2020-02-07 03:08:00",0,0,0,0,0,0
"2020-02-07 03:08:00-2020-02-07 03:10:00",0,0,0,0,0,0
"2020-02-07 03:10:00-2020-02-07 03:12:00",0,0,0,0,0,0
"2020-02-07 03:12:00-2020-02-07 03:14:00",0,0,0,0,0,0
"2020-02-07 03:14:00-2020-02-07 03:16:00",0,0,0,0,0,0
"2020-02-07 03:16:00-2020-02-07 03:18:00",0,0,0,0,0,0
"2020-02-07 03:18:00-2020-02-07 03:20:00",0,0,0,0,0,0
"2020-02-07 03:20:00-2020-02-07 03:22:00",0,0,0,0,0,0
"2020-02-07 03:22:00-2020-02-07 03:24:00",0,0,0,0,0,0
"2020-02-07 03:24:00-2020-02-07 03:26:00",0,0,0,0,0,0
"2020-02-07 03:26:00-2020-02-07 03:28:00",0,0,0,0,0,0
"2020-02-07 03:28:00-2020-02-07 03:30:00",0,0,0,0,0,0
"2020-02-07 03:30:00-2020-02-07 03:32:00",0,0,0,0,0,0
"2020-02-07 03:32:00-2020-02-07 03:34:00",0,0,0,0,0,0
"2020-02-07 03:34:00-2020-02-07 03:36:00",0,0,0,0,0,0
"2020-02-07 03:36:00-2020-02-07 03:38:00",0,0,0,0,0,0
"2020-02-07 03:38:00-2020-02-07 03:40:00",0,0,0,0,0,0
"2020-02-07 03:40:00-2020-02-07 03:42:00",0,0,0,0,0,0
"2020-02-07 03:42:00-2020-02-07 03:44:00",0,0,0,0,0,0
"2020-02-07 03:44:00-2020-02-07 03:46:00",0,0,0,0,0,0
"2020-02-07 03:46:00-2020-02-07 03:48:00",0,0,0,0,0,0
"2020-02-07 03:48:00-2020-02-07 03:50:00",0,0,0,0,0,0
"2020-02-07 03:50:00-2020-02-07 03:52:00",0,0,0,0,0,0
"2020-02-07 03:52:00-2020-02-07 03:54:00",0,0,0,0,0,0
"2020-02-07 03:54:00-2020-02-07 03:56:00",0,0,0,0,0,0
"2020-02-07 03:56:00-2020-02-07 03:58:00",0,0,0,0,0,0
"2020-02-07 03:58:00-2020-02-07 04:00:00",0,0,0,0,0,0
"2020-02-07 04:00:00-2020-02-07 04:02:00",0,0,0,0,0,0
"2020-02-07 04:02:00-2020-02-07 04:04:00",0,0,0,0,0,0
"2020-02-07 04:04:00-2020-02-07 04:06:00",0,0,0,0,0,0
"2020-02-07 04:06:00-2020-02-07 04:08:00",0,0,0,0,0,0
"2020-02-07 04:08:00-2020-02-07 04:10:00",0,0,0,0,0,0
"2020-02-07 04:10:00-2020-02-07 04:12:00",0,0,0,0,0,0
"2020-02-07 04:12:00-2020-02-07 04:14:00",0,0,0,0,0,0
"2020-02-07 04:14:00-2020-02-07 04:16:00",0,0,0,0,0,0
"2020-02-07 04:16:00-2020-02-07 04:18:00",0,0,0,0,0,0
"2020-02-07 04:18:00-2020-02-07 04:20:00",0,0,0,0,0,0
"2020-02-07 04:20:00-2020-02-07 04:22:00",0,0,0,0,0,0
"2020-02-07 04:22:00-2020-02-07 04:24:00",0,0,0,0,0,0
"2020-02-07 04:24:00-2020-02-07 04:26:00",0,0,0,0,0,0
"2020-02-07 04:26:00-2020-02-07 04:28:00",6,0,0,0,0,0
"2020-02-07 04:28:00-2020-02-07 04:30:00",0,0,0,0,0,0
"2020-02-07 04:30:00-2020-02-07 04:32:00",0,0,0,0,0,0
"2020-02-07 04:32:00-2020-02-07 04:34:00",0,0,0,0,0,0
"2020-02-07 04:34:00-2020-02-07 04:36:00",0,0,0,0,0,0
"2020-02-07 04:36:00-2020-02-07 04:38:00",0,0,0,0,0,0
"2020-02-07 04:38:00-2020-02-07 04:40:00",0,0,0,1,0,0
"2020-02-07 04:40:00-2020-02-07 04:42:00",0,0,0,0,0,0
"2020-02-07 04:42:00-2020-02-07 04:44:00",0,0,0,0,0,0
"2020-02-07 04:44:00-2020-02-07 04:46:00",0,0,0,0,0,0
"2020-02-07 04:46:00-2020-02-07 04:48:00",1,1380,0,0,0,1
"2020-02-07 04:48:00-2020-02-07 04:50:00",0,0,0,0,0,0
"2020-02-07 04:50:00-2020-02-07 04:52:00",0,0,0,0,0,0
"2020-02-07 04:52:00-2020-02-07 04:54:00",0,0,0,0,0,0
"2020-02-07 04:54:00-2020-02-07 04:56:00",0,0,0,0,0,0
"2020-02-07 04:56:00-2020-02-07 04:58:00",0,0,0,0,0,0
"2020-02-07 04:58:00-2020-02-07 05:00:00",0,0,0,0,0,0
"2020-02-07 05:00:00-2020-02-07 05:02:00",0,0,0,0,0,0
"2020-02-07 05:02:00-2020-02-07 05:04:00",0,0,0,0,0,0
"2020-02-07 05:04:00-2020-02-07 05:06:00",0,0,0,0,0,0
"2020-02-07 05:06:00-2020-02-07 05:08:00",0,0,0,0,0,0
"2020-02-07 05:08:00-2020-02-07 05:10:00",0,0,0,0,0,222
"2020-02-07 05:10:00-2020-02-07 05:12:00",0,0,0,0,0,0
"2020-02-07 05:12:00-2020-02-07 05:14:00",0,0,0,0,0,0
"2020-02-07 05:14:00-2020-02-07 05:16:00",0,0,0,0,0,0
"2020-02-07 05:16:00-2020-02-07 05:18:00",0,0,0,0,0,0
"2020-02-07 05:18:00-2020-02-07 05:20:00",0,0,0,0,0,0
"2020-02-07 05:20:00-2020-02-07 05:22:00",0,0,0,0,0,0
"2020-02-07 05:22:00-2020-02-07 05:24:00",0,0,0,0,0,0
"2020-02-07 05:24:00-2020-02-07 05:26:00",0,0,0,0,0,0
"2020-02-07 05:26:00-2020-02-07 05:28:00",0,0,0,1,0,0
"2020-02-07 05:28:00-2020-02-07 05:30:00",0,0,0,1,0,0
"2020-02-07 05:30:00-2020-02-07 05:32:00",0,0,0,0,0,0
"2020-02-07 05:32:00-2020-02-07 05:34:00",0,0,0,0,0,0
"2020-02-07 05:34:00-2020-02-07 05:36:00",0,0,0,0,0,0
"2020-02-07 05:36:00-2020-02-07 05:38:00",4,0,0,0,0,0
"2020-02-07 05:38:00-2020-02-07 05:40:00",0,0,0,0,0,0
"2020-02-07 05:40:00-2020-02-07 05:42:00",0,0,0,0,0,0
"2020-02-07 05:42:00-2020-02-07 05:44:00",0,0,0,0,0,0
"2020-02-07 05:44:00-2020-02-07 05:46:00",0,0,0,0,0,0
"2020-02-07 05:46:00-2020-02-07 05:48:00",0,0,0,0,0,0
"2020-02-07 05:48:00-2020-02-07 05:50:00",0,0,0,0,0,0
"2020-02-07 05:50:00-2020-02-07 05:52:00",0,0,0,0,0,0
"2020-02-07 05:52:00-2020-02-07 05:54:00",0,0,596,0,0,0
"2020-02-07 05:54:00-2020-02-07 05:56:00",0,0,743,0,0,0
"2020-02-07 05:56:00-2020-02-07 05:58:00",0,0,0,0,0,0
"2020-02-07 05:58:00-2020-02-07 06:00:00",68,0,0,0,0,0
"2020-02-07 06:00:00-2020-02-07 06:02:00",0,0,0,0,0,0
"2020-02-07 06:02:00-2020-02-07 06:04:00",165,0,0,0,0,0
"2020-02-07 06:04:00-2020-02-07 06:06:00",451,0,0,0,0,0
"2020-02-07 06:06:00-2020-02-07 06:08:00",0,0,0,0,0,0
"2020-02-07 06:08:00-2020-02-07 06:10:00",0,0,1277,0,0,0
"2020-02-07 06:10:00-2020-02-07 06:12:00",2,0,0,0,0,0
"2020-02-07 06:12:00-2020-02-07 06:14:00",4,0,0,0,0,0
"2020-02-07 06:14:00-2020-02-07 06:16:00",4,0,0,0,0,0
"2020-02-07 06:16:00-2020-02-07 06:18:00",6,0,1844,0,0,0
"2020-02-07 06:18:00-2020-02-07 06:20:00",0,0,1008,0,0,0
"2020-02-07 06:20:00-2020-02-07 06:22:00",6,0,768,0,0,0
"2020-02-07 06:22:00-2020-02-07 06:24:00",22,0,328,0,0,0
"2020-02-07 06:24:00-2020-02-07 06:26:00",1582,0,436,0,0,0
"2020-02-07 06:26:00-2020-02-07 06:28:00",3410,0,0,5408,0,0
"2020-02-07 06:28:00-2020-02-07 06:30:00",226,0,0,0,0,0
"2020-02-07 06:30:00-2020-02-07 06:32:00",1834,0,0,0,0,0
"2020-02-07 06:32:00-2020-02-07 06:34:00",71,0,0,0,0,0
"2020-02-07 06:34:00-2020-02-07 06:36:00",22,0,0,0,0,0
"2020-02-07 06:36:00-2020-02-07 06:38:00",26,0,0,0,0,0
"2020-02-07 06:38:00-2020-02-07 06:40:00",19,0,0,0,0,0
"2020-02-07 06:40:00-2020-02-07 06:42:00",9,0,0,0,0,0
"2020-02-07 06:42:00-2020-02-07 06:44:00",104,0,0,0,0,0
"2020-02-07 06:44:00-2020-02-07 06:46:00",14,0,0,0,0,0
"2020-02-07 06:46:00-2020-02-07 06:48:00",100,831,439,0,0,0
"2020-02-07 06:48:00-2020-02-07 06:50:00",9,748,2349,0,0,0
"2020-02-07 06:50:00-2020-02-07 06:52:00",519,0,2584,0,0,0
"2020-02-07 06:52:00-2020-02-07 06:54:00",219,214,2167,0,0,0
"2020-02-07 06:54:00-2020-02-07 06:56:00",10,2703,1381,0,0,0
"2020-02-07 06:56:00-2020-02-07 06:58:00",528,0,0,0,0,0
"2020-02-07 06:58:00-2020-02-07 07:00:00",3753,1942,0,0,0,0
"2020-02-07 07:00:00-2020-02-07 07:02:00",569,0,0,0,0,0
"2020-02-07 07:02:00-2020-02-07 07:04:00",1086,0,0,0,0,0
"2020-02-07 07:04:00-2020-02-07 07:06:00",2078,0,0,0,0,0
"2020-02-07 07:06:00-2020-02-07 07:08:00",2688,23,0,0,0,0
"2020-02-07 07:08:00-2020-02-07 07:10:00",133,0,0,0,0,0
"2020-02-07 07:10:00-2020-02-07 07:12:00",278,0,0,0,1782,0
"2020-02-07 07:12:00-2020-02-07 07:14:00",449,0,0,0,1056,0
"2020-02-07 07:14:00-2020-02-07 07:16:00",0,0,0,0,0,0
"2020-02-07 07:16:00-2020-02-07 07:18:00",329,0,0,0,170,0
"2020-02-07 07:18:00-2020-02-07 07:20:00",1,0,0,0,437,0
"2020-02-07 07:20:00-2020-02-07 07:22:00",2,0,0,0,1861,0
"2020-02-07 07:22:00-2020-02-07 07:24:00",2,0,0,0,260,0
"2020-02-07 07:24:00-2020-02-07 07:26:00",0,0,0,0,0,0
"2020-02-07 07:26:00-2020-02-07 07:28:00",20,0,0,0,283,259
"2020-02-07 07:28:00-2020-02-07 07:30:00",16,0,0,0,476,910
"2020-02-07 07:30:00-2020-02-07 07:32:00",10,0,0,0,22,0
"2020-02-07 07:32:00-2020-02-07 07:34:00",10,0,0,0,32,0
"2020-02-07 07:34:00-2020-02-07 07:36:00",8,206,0,0,0,114
"2020-02-07 07:36:00-2020-02-07 07:38:00",13,1268,0,0,0,0
"2020-02-07 07:38:00-2020-02-07 07:40:00",4,0,0,0,0,0
"2020-02-07 07:40:00-2020-02-07 07:42:00",6,0,0,0,0,0
"2020-02-07 07:42:00-2020-02-07 07:44:00",2,0,0,0,0,0
"2020-02-07 07:44:00-2020-02-07 07:46:00",2,0,0,0,0,0
"2020-02-07 07:46:00-2020-02-07 07:48:00",3,0,0,0,0,0
"2020-02-07 07:48:00-2020-02-07 07:50:00",17,511,0,0,0,0
"2020-02-07 07:50:00-2020-02-07 07:52:00",11,1551,0,0,518,0
"2020-02-07 07:52:00-2020-02-07 07:54:00",4,0,0,0,516,0
"2020-02-07 07:54:00-2020-02-07 07:56:00",10,0,0,0,508,0
"2020-02-07 07:56:00-2020-02-07 07:58:00",21,0,0,0,6,0
"2020-02-07 07:58:00-2020-02-07 08:00:00",6,0,0,0,0,0
"2020-02-07 08:00:00-2020-02-07 08:02:00",17,0,0,0,0,0
"2020-02-07 08:02:00-2020-02-07 08:04:00",2,0,0,0,0,0
"2020-02-07 08:04:00-2020-02-07 08:06:00",13,3011,0,0,0,0
"2020-02-07 08:06:00-2020-02-07 08:08:00",3,3152,0,0,0,0
"2020-02-07 08:08:00-2020-02-07 08:10:00",4,0,0,0,0,0
"2020-02-07 08:10:00-2020-02-07 08:12:00",3,953,0,0,0,0
"2020-02-07 08:12:00-2020-02-07 08:14:00",1,0,0,0,0,0
"2020-02-07 08:14:00-2020-02-07 08:16:00",8,0,0,0,0,0
"2020-02-07 08:16:00-2020-02-07 08:18:00",4,0,0,0,0,0
"2020-02-07 08:18:00-2020-02-07 08:20:00",6,0,0,0,0,0
"2020-02-07 08:20:00-2020-02-07 08:22:00",25,0,0,0,0,0
"2020-02-07 08:22:00-2020-02-07 08:24:00",21,0,0,0,0,0
"2020-02-07 08:24:00-2020-02-07 08:26:00",559,0,0,0,0,0
"2020-02-07 08:26:00-2020-02-07 08:28:00",192,0,0,0,0,0
"2020-02-07 08:28:00-2020-02-07 08:30:00",701,38,0,0,0,0
"2020-02-07 08:30:00-2020-02-07 08:32:00",499,0,0,0,0,0
"2020-02-07 08:32:00-2020-02-07 08:34:00",3074,0,0,0,0,0
"2020-02-07 08:34:00-2020-02-07 08:36:00",3,0,0,0,0,0
"2020-02-07 08:36:00-2020-02-07 08:38:00",3,0,0,0,0,0
"2020-02-07 08:38:00-2020-02-07 08:40:00",10,0,0,0,0,0
"2020-02-07 08:40:00-2020-02-07 08:42:00",1981,0,320,0,0,0
"2020-02-07 08:42:00-2020-02-07 08:44:00",1437,454,1,319,0,0
"2020-02-07 08:44:00-2020-02-07 08:46:00",4,0,0,0,0,0
"2020-02-07 08:46:00-2020-02-07 08:48:00",0,0,0,2,0,0
"2020-02-07 08:48:00-2020-02-07 08:50:00",5,0,0,0,0,0
"2020-02-07 08:50:00-2020-02-07 08:52:00",2,0,0,0,0,0
"2020-02-07 08:52:00-2020-02-07 08:54:00",481,0,0,0,0,0
"2020-02-07 08:54:00-2020-02-07 08:56:00",4,0,4392,1,0,0
"2020-02-07 08:56:00-2020-02-07 08:58:00",2,0,1700,1,0,0
"2020-02-07 08:58:00-2020-02-07 09:00:00",302,0,187,272,0,0
"2020-02-07 09:00:00-2020-02-07 09:02:00",3452,0,0,4766,0,0
"2020-02-07 09:02:00-2020-02-07 09:04:00",22,0,1,3572,0,0
"2020-02-07 09:04:00-2020-02-07 09:06:00",5,0,0,6421,0,0
"2020-02-07 09:06:00-2020-02-07 09:08:00",0,0,0,0,0,0
"2020-02-07 09:08:00-2020-02-07 09:10:00",47,0,0,4762,0,0
"2020-02-07 09:10:00-2020-02-07 09:12:00",4,0,0,0,0,0
"2020-02-07 09:12:00-2020-02-07 09:14:00",5,0,0,2,0,0
"2020-02-07 09:14:00-2020-02-07 09:16:00",0,0,0,0,0,0
"2020-02-07 09:16:00-2020-02-07 09:18:00",0,0,0,0,0,0
"2020-02-07 09:18:00-2020-02-07 09:20:00",130,0,0,1,48,0
"2020-02-07 09:20:00-2020-02-07 09:22:00",3,0,0,3,0,0
"2020-02-07 09:22:00-2020-02-07 09:24:00",25,479,0,1,0,0
"2020-02-07 09:24:00-2020-02-07 09:26:00",0,0,0,0,0,0
"2020-02-07 09:26:00-2020-02-07 09:28:00",9,1099,0,2,0,0
"2020-02-07 09:28:00-2020-02-07 09:30:00",7,0,40,3,0,0
"2020-02-07 09:30:00-2020-02-07 09:32:00",16,0,351,274,0,0
"2020-02-07 09:32:00-2020-02-07 09:34:00",21,0,506,1,0,0
"2020-02-07 09:34:00-2020-02-07 09:36:00",418,0,2682,1000,0,0
"2020-02-07 09:36:00-2020-02-07 09:38:00",589,0,2146,3539,0,0
"2020-02-07 09:38:00-2020-02-07 09:40:00",680,0,0,5879,0,0
"2020-02-07 09:40:00-2020-02-07 09:42:00",1,0,0,31,0,0
"2020-02-07 09:42:00-2020-02-07 09:44:00",2,0,371,0,0,0
"2020-02-07 09:44:00-2020-02-07 09:46:00",69,0,887,6127,0,0
"2020-02-07 09:46:00-2020-02-07 09:48:00",188,0,0,1950,0,0
"2020-02-07 09:48:00-2020-02-07 09:50:00",8,0,0,4736,0,0
"2020-02-07 09:50:00-2020-02-07 09:52:00",2,0,0,2942,0,0
"2020-02-07 09:52:00-2020-02-07 09:54:00",10,0,0,0,0,0
"2020-02-07 09:54:00-2020-02-07 09:56:00",411,16,0,0,0,0
"2020-02-07 09:56:00-2020-02-07 09:58:00",47,1504,0,0,0,0
"2020-02-07 09:58:00-2020-02-07 10:00:00",0,0,0,0,0,0
"2020-02-07 10:00:00-2020-02-07 10:02:00",1,0,0,0,0,0
"2020-02-07 10:02:00-2020-02-07 10:04:00",3,0,0,0,0,0
"2020-02-07 10:04:00-2020-02-07 10:06:00",136,0,0,0,0,0
"2020-02-07 10:06:00-2020-02-07 10:08:00",3,0,0,0,0,0
"2020-02-07 10:08:00-2020-02-07 10:10:00",1,0,0,0,0,0
"2020-02-07 10:10:00-2020-02-07 10:12:00",0,0,296,0,0,215
"2020-02-07 10:12:00-2020-02-07 10:14:00",4,0,2057,0,0,1897
"2020-02-07 10:14:00-2020-02-07 10:16:00",0,0,818,0,0,0
"2020-02-07 10:16:00-2020-02-07 10:18:00",8,0,0,0,0,0
"2020-02-07 10:18:00-2020-02-07 10:20:00",1,0,0,0,0,0
"2020-02-07 10:20:00-2020-02-07 10:22:00",54,0,0,0,0,0
"2020-02-07 10:22:00-2020-02-07 10:24:00",151,0,0,0,0,0
"2020-02-07 10:24:00-2020-02-07 10:26:00",4328,0,0,0,0,0
"2020-02-07 10:26:00-2020-02-07 10:28:00",3655,0,0,0,0,0
"2020-02-07 10:28:00-2020-02-07 10:30:00",2164,856,0,0,0,0
"2020-02-07 10:30:00-2020-02-07 10:32:00",1751,614,0,0,0,0
"2020-02-07 10:32:00-2020-02-07 10:34:00",411,0,0,0,0,0
"2020-02-07 10:34:00-2020-02-07 10:36:00",181,0,0,0,0,0
"2020-02-07 10:36:00-2020-02-07 10:38:00",137,1239,0,6,0,0
"2020-02-07 10:38:00-2020-02-07 10:40:00",5,0,0,4204,0,0
"2020-02-07 10:40:00-2020-02-07 10:42:00",1511,1230,0,0,0,0
"2020-02-07 10:42:00-2020-02-07 10:44:00",1644,0,0,0,0,0
"2020-02-07 10:44:00-2020-02-07 10:46:00",103,0,0,0,0,0
"2020-02-07 10:46:00-2020-02-07 10:48:00",14,0,0,0,0,0
"2020-02-07 10:48:00-2020-02-07 10:50:00",7,0,0,0,0,0
"2020-02-07 10:50:00-2020-02-07 10:52:00",5,0,0,0,0,0
"2020-02-07 10:52:00-2020-02-07 10:54:00",4,0,0,0,0,0
"2020-02-07 10:54:00-2020-02-07 10:56:00",9,0,0,3,0,0
"2020-02-07 10:56:00-2020-02-07 10:58:00",5,0,0,0,0,0
"2020-02-07 10:58:00-2020-02-07 11:00:00",2,0,0,0,0,0
"2020-02-07 11:00:00-2020-02-07 11:02:00",178,0,0,3386,0,0
"2020-02-07 11:02:00-2020-02-07 11:04:00",0,0,0,0,0,0
"2020-02-07 11:04:00-2020-02-07 11:06:00",14,0,0,0,0,0
"2020-02-07 11:06:00-2020-02-07 11:08:00",7,0,0,0,0,0
"2020-02-07 11:08:00-2020-02-07 11:10:00",7,0,0,0,0,0
"2020-02-07 11:10:00-2020-02-07 11:12:00",7,0,0,0,0,0
"2020-02-07 11:12:00-2020-02-07 11:14:00",5,0,0,0,1127,0
"2020-02-07 11:14:00-2020-02-07 11:16:00",6,0,0,0,626,0
"2020-02-07 11:16:00-2020-02-07 11:18:00",1,0,0,0,0,0
"2020-02-07 11:18:00-2020-02-07 11:20:00",7,0,0,0,0,0
"2020-02-07 11:20:00-2020-02-07 11:22:00",3,0,0,0,0,0
"2020-02-07 11:22:00-2020-02-07 11:24:00",247,0,0,0,0,0
"2020-02-07 11:24:00-2020-02-07 11:26:00",8,0,0,0,0,0
"2020-02-07 11:26:00-2020-02-07 11:28:00",6,0,0,0,0,0
"2020-02-07 11:28:00-2020-02-07 11:30:00",1,0,0,1,0,0
"2020-02-07 11:30:00-2020-02-07 11:32:00",3,0,0,5891,0,0
"2020-02-07 11:32:00-2020-02-07 11:34:00",152,0,0,947,0,0
"2020-02-07 11:34:00-2020-02-07 11:36:00",152,0,0,947,0,0
"2020-02-07 11:36:00-2020-02-07 11:38:00",11,1551,0,0,0,0
"2020-02-07 11:38:00-2020-02-07 11:40:00",709,0,0,0,0,0
"2020-02-07 11:40:00-2020-02-07 11:42:00",2792,55,0,0,0,0
"2020-02-07 11:42:00-2020-02-07 11:44:00",6,0,0,0,0,0
"2020-02-07 11:44:00-2020-02-07 11:46:00",3,0,0,0,0,0
"2020-02-07 11:46:00-2020-02-07 11:48:00",8,0,0,0,0,0
"2020-02-07 11:48:00-2020-02-07 11:50:00",9,0,0,0,0,0
"2020-02-07 11:50:00-2020-02-07 11:52:00",8,0,0,0,0,0
"2020-02-07 11:52:00-2020-02-07 11:54:00",4,0,0,0,0,0
"2020-02-07 11:54:00-2020-02-07 11:56:00",5,0,0,0,0,0
"2020-02-07 11:56:00-2020-02-07 11:58:00",0,0,0,0,0,0
"2020-02-07 11:58:00-2020-02-07 12:00:00",2,0,0,0,0,0
"2020-02-07 12:00:00-2020-02-07 12:02:00",0,0,0,0,0,0
"2020-02-07 12:02:00-2020-02-07 12:04:00",0,0,0,0,0,0
"2020-02-07 12:04:00-2020-02-07 12:06:00",3,0,0,0,0,0
"2020-02-07 12:06:00-2020-02-07 12:08:00",4,0,0,0,0,0
"2020-02-07 12:08:00-2020-02-07 12:10:00",30,0,0,0,0,0
"2020-02-07 12:10:00-2020-02-07 12:12:00",6,0,0,0,0,0
"2020-02-07 12:12:00-2020-02-07 12:14:00",0,0,0,0,0,0
"2020-02-07 12:14:00-2020-02-07 12:16:00",28,0,0,0,0,0
"2020-02-07 12:16:00-2020-02-07 12:18:00",4,0,0,0,0,0
"2020-02-07 12:18:00-2020-02-07 12:20:00",155,0,0,0,706,0
"2020-02-07 12:20:00-2020-02-07 12:22:00",3,0,0,0,1109,0
"2020-02-07 12:22:00-2020-02-07 12:24:00",8,0,0,0,859,0
"2020-02-07 12:24:00-2020-02-07 12:26:00",10,0,0,0,3564,0
"2020-02-07 12:26:00-2020-02-07 12:28:00",1327,0,0,0,2821,0
"2020-02-07 12:28:00-2020-02-07 12:30:00",5536,0,0,0,0,0
"2020-02-07 12:30:00-2020-02-07 12:32:00",5517,0,0,0,0,0
"2020-02-07 12:32:00-2020-02-07 12:34:00",2007,0,0,0,0,0
"2020-02-07 12:34:00-2020-02-07 12:36:00",8,0,0,0,0,0
"2020-02-07 12:36:00-2020-02-07 12:38:00",22,0,0,0,0,0
"2020-02-07 12:38:00-2020-02-07 12:40:00",0,0,0,0,0,0
"2020-02-07 12:40:00-2020-02-07 12:42:00",0,0,0,0,0,0
"2020-02-07 12:42:00-2020-02-07 12:44:00",11,0,0,0,0,0
"2020-02-07 12:44:00-2020-02-07 12:46:00",4,0,0,0,0,0
"2020-02-07 12:46:00-2020-02-07 12:48:00",1,0,0,0,0,0
"2020-02-07 12:48:00-2020-02-07 12:50:00",1811,0,0,0,0,0
"2020-02-07 12:50:00-2020-02-07 12:52:00",5525,0,0,0,0,0
"2020-02-07 12:52:00-2020-02-07 12:54:00",0,0,0,0,0,0
"2020-02-07 12:54:00-2020-02-07 12:56:00",0,0,0,0,0,1024
"2020-02-07 12:56:00-2020-02-07 12:58:00",0,0,0,0,0,1474
"2020-02-07 12:58:00-2020-02-07 13:00:00",0,0,0,0,0,869
"2020-02-07 13:00:00-2020-02-07 13:02:00",2,0,0,0,92,0
"2020-02-07 13:02:00-2020-02-07 13:04:00",2,0,0,0,0,0
"2020-02-07 13:04:00-2020-02-07 13:06:00",1,0,0,0,0,0
"2020-02-07 13:06:00-2020-02-07 13:08:00",1,0,0,0,0,0
"2020-02-07 13:08:00-2020-02-07 13:10:00",2,0,0,0,0,0
"2020-02-07 13:10:00-2020-02-07 13:12:00",2,0,0,0,0,0
"2020-02-07 13:12:00-2020-02-07 13:14:00",25,0,0,0,0,0
"2020-02-07 13:14:00-2020-02-07 13:16:00",3,0,0,0,2225,0
"2020-02-07 13:16:00-2020-02-07 13:18:00",1,0,0,0,3875,0
"2020-02-07 13:18:00-2020-02-07 13:20:00",2,0,0,0,4034,0
"2020-02-07 13:20:00-2020-02-07 13:22:00",2,0,0,0,3956,0
"2020-02-07 13:22:00-2020-02-07 13:24:00",521,0,0,0,4262,0
"2020-02-07 13:24:00-2020-02-07 13:26:00",4980,0,0,0,4045,0
"2020-02-07 13:26:00-2020-02-07 13:28:00",788,603,0,0,3700,0
"2020-02-07 13:28:00-2020-02-07 13:30:00",2,4704,0,0,1542,0
"2020-02-07 13:30:00-2020-02-07 13:32:00",39,0,2989,0,0,0
"2020-02-07 13:32:00-2020-02-07 13:34:00",1354,0,3257,0,0,0
"2020-02-07 13:34:00-2020-02-07 13:36:00",738,78,0,16965,0,0
"2020-02-07 13:36:00-2020-02-07 13:38:00",382,1993,0,130,0,0
"2020-02-07 13:38:00-2020-02-07 13:40:00",1,2106,0,0,0,0
"2020-02-07 13:40:00-2020-02-07 13:42:00",5,1185,0,1,0,0
"2020-02-07 13:42:00-2020-02-07 13:44:00",0,0,0,0,0,0
"2020-02-07 13:44:00-2020-02-07 13:46:00",5,80,0,1,0,0
"2020-02-07 13:46:00-2020-02-07 13:48:00",0,0,0,0,0,0
"2020-02-07 13:48:00-2020-02-07 13:50:00",6,0,0,1,0,0
"2020-02-07 13:50:00-2020-02-07 13:52:00",74,0,0,1,0,0
"2020-02-07 13:52:00-2020-02-07 13:54:00",6,0,0,0,0,4
"2020-02-07 13:54:00-2020-02-07 13:56:00",12,0,0,1,0,0
"2020-02-07 13:56:00-2020-02-07 13:58:00",4,0,0,0,0,0
"2020-02-07 13:58:00-2020-02-07 14:00:00",5,1496,0,0,0,0
"2020-02-07 14:00:00-2020-02-07 14:02:00",13,0,0,0,0,0
"2020-02-07 14:02:00-2020-02-07 14:04:00",2,1,0,0,0,0
"2020-02-07 14:04:00-2020-02-07 14:06:00",11,1444,0,1,0,0
"2020-02-07 14:06:00-2020-02-07 14:08:00",0,0,0,0,0,0
"2020-02-07 14:08:00-2020-02-07 14:10:00",3,0,0,0,0,0
"2020-02-07 14:10:00-2020-02-07 14:12:00",9,0,0,0,0,0
"2020-02-07 14:12:00-2020-02-07 14:14:00",0,0,0,0,0,0
"2020-02-07 14:14:00-2020-02-07 14:16:00",0,0,0,0,0,0
"2020-02-07 14:16:00-2020-02-07 14:18:00",0,0,0,0,0,10
"2020-02-07 14:18:00-2020-02-07 14:20:00",2,0,0,0,0,0
"2020-02-07 14:20:00-2020-02-07 14:22:00",2,0,0,0,0,0
"2020-02-07 14:22:00-2020-02-07 14:24:00",274,0,0,0,0,0
"2020-02-07 14:24:00-2020-02-07 14:26:00",6,0,0,0,0,0
"2020-02-07 14:26:00-2020-02-07 14:28:00",0,0,0,0,0,0
"2020-02-07 14:28:00-2020-02-07 14:30:00",2,0,0,0,0,0
"2020-02-07 14:30:00-2020-02-07 14:32:00",0,0,0,0,0,0
"2020-02-07 14:32:00-2020-02-07 14:34:00",495,0,0,0,0,0
"2020-02-07 14:34:00-2020-02-07 14:36:00",3,0,0,0,0,0
"2020-02-07 14:36:00-2020-02-07 14:38:00",2,0,0,0,0,0
"2020-02-07 14:38:00-2020-02-07 14:40:00",10,0,0,2,0,0
"2020-02-07 14:40:00-2020-02-07 14:42:00",0,0,0,1,0,0
"2020-02-07 14:42:00-2020-02-07 14:44:00",0,0,0,0,0,0
"2020-02-07 14:44:00-2020-02-07 14:46:00",0,0,0,1,0,0
"2020-02-07 14:46:00-2020-02-07 14:48:00",0,0,0,0,0,0
"2020-02-07 14:48:00-2020-02-07 14:50:00",0,0,0,0,0,0
"2020-02-07 14:50:00-2020-02-07 14:52:00",0,0,0,0,0,0
"2020-02-07 14:52:00-2020-02-07 14:54:00",0,0,0,1,0,0
"2020-02-07 14:54:00-2020-02-07 14:56:00",0,0,0,0,0,0
"2020-02-07 14:56:00-2020-02-07 14:58:00",0,0,0,0,0,0
"2020-02-07 14:58:00-2020-02-07 15:00:00",0,0,0,0,0,0
"2020-02-07 15:00:00-2020-02-07 15:02:00",0,0,0,0,0,0
"2020-02-07 15:02:00-2020-02-07 15:04:00",116,0,0,1,0,0
"2020-02-07 15:04:00-2020-02-07 15:06:00",215,0,0,1,0,0
"2020-02-07 15:06:00-2020-02-07 15:08:00",4,0,0,0,0,0
"2020-02-07 15:08:00-2020-02-07 15:10:00",8,213,0,0,0,17
"2020-02-07 15:10:00-2020-02-07 15:12:00",0,0,0,0,0,0
"2020-02-07 15:12:00-2020-02-07 15:14:00",231,0,0,0,0,0
"2020-02-07 15:14:00-2020-02-07 15:16:00",112,0,0,0,63,0
"2020-02-07 15:16:00-2020-02-07 15:18:00",57,0,0,0,0,0
"2020-02-07 15:18:00-2020-02-07 15:20:00",1,0,0,0,12,0
"2020-02-07 15:20:00-2020-02-07 15:22:00",3,0,0,0,212,0
"2020-02-07 15:22:00-2020-02-07 15:24:00",0,0,0,0,0,0
"2020-02-07 15:24:00-2020-02-07 15:26:00",0,0,0,0,0,0
"2020-02-07 15:26:00-2020-02-07 15:28:00",0,0,0,0,0,0
"2020-02-07 15:28:00-2020-02-07 15:30:00",5,0,0,1,167,0
"2020-02-07 15:30:00-2020-02-07 15:32:00",35,0,0,0,986,0
"2020-02-07 15:32:00-2020-02-07 15:34:00",0,0,0,0,0,0
"2020-02-07 15:34:00-2020-02-07 15:36:00",0,0,0,0,0,0
"2020-02-07 15:36:00-2020-02-07 15:38:00",2,0,0,0,0,0
"2020-02-07 15:38:00-2020-02-07 15:40:00",0,0,0,0,0,0
"2020-02-07 15:40:00-2020-02-07 15:42:00",0,0,0,0,0,0
"2020-02-07 15:42:00-2020-02-07 15:44:00",0,0,0,1,0,0
"2020-02-07 15:44:00-2020-02-07 15:46:00",4,0,0,2,0,0
"2020-02-07 15:46:00-2020-02-07 15:48:00",0,0,0,0,0,0
"2020-02-07 15:48:00-2020-02-07 15:50:00",0,0,0,0,0,0
"2020-02-07 15:50:00-2020-02-07 15:52:00",3,0,0,0,0,0
"2020-02-07 15:52:00-2020-02-07 15:54:00",5,0,0,0,0,0
"2020-02-07 15:54:00-2020-02-07 15:56:00",1,0,0,0,0,0
"2020-02-07 15:56:00-2020-02-07 15:58:00",1,1422,0,0,0,0
"2020-02-07 15:58:00-2020-02-07 16:00:00",0,0,0,0,0,0
"2020-02-07 16:00:00-2020-02-07 16:02:00",0,0,0,0,0,0
"2020-02-07 16:02:00-2020-02-07 16:04:00",0,0,0,1,0,0
"2020-02-07 16:04:00-2020-02-07 16:06:00",0,0,0,0,0,0
"2020-02-07 16:06:00-2020-02-07 16:08:00",0,0,0,0,0,0
"2020-02-07 16:08:00-2020-02-07 16:10:00",0,0,0,0,0,0
"2020-02-07 16:10:00-2020-02-07 16:12:00",0,0,0,1,0,0
"2020-02-07 16:12:00-2020-02-07 16:14:00",0,0,0,0,0,0
"2020-02-07 16:14:00-2020-02-07 16:16:00",0,0,0,0,0,0
"2020-02-07 16:16:00-2020-02-07 16:18:00",1,1,0,0,0,0
"2020-02-07 16:18:00-2020-02-07 16:20:00",2,0,0,0,0,0
"2020-02-07 16:20:00-2020-02-07 16:22:00",1,0,0,1,0,0
"2020-02-07 16:22:00-2020-02-07 16:24:00",7,0,0,0,0,0
"2020-02-07 16:24:00-2020-02-07 16:26:00",3,0,0,0,0,0
"2020-02-07 16:26:00-2020-02-07 16:28:00",8,307,0,1,0,0
"2020-02-07 16:28:00-2020-02-07 16:30:00",5,1223,0,0,0,0
"2020-02-07 16:30:00-2020-02-07 16:32:00",2,0,0,0,0,0
"2020-02-07 16:32:00-2020-02-07 16:34:00",5,0,0,0,0,0
"2020-02-07 16:34:00-2020-02-07 16:36:00",9,0,0,1,0,0
"2020-02-07 16:36:00-2020-02-07 16:38:00",1,0,0,0,0,0
"2020-02-07 16:38:00-2020-02-07 16:40:00",9,0,1501,0,0,0
"2020-02-07 16:40:00-2020-02-07 16:42:00",0,0,0,0,0,0
"2020-02-07 16:42:00-2020-02-07 16:44:00",0,0,0,0,0,0
"2020-02-07 16:44:00-2020-02-07 16:46:00",8,0,0,0,0,0
"2020-02-07 16:46:00-2020-02-07 16:48:00",0,0,0,0,0,0
"2020-02-07 16:48:00-2020-02-07 16:50:00",0,0,0,0,0,0
"2020-02-07 16:50:00-2020-02-07 16:52:00",1,0,0,0,0,0
"2020-02-07 16:52:00-2020-02-07 16:54:00",0,0,0,0,0,0
"2020-02-07 16:54:00-2020-02-07 16:56:00",1,0,0,2,0,0
"2020-02-07 16:56:00-2020-02-07 16:58:00",0,0,0,0,0,0
"2020-02-07 16:58:00-2020-02-07 17:00:00",0,0,0,0,0,0
"2020-02-07 17:00:00-2020-02-07 17:02:00",0,0,0,0,0,0
"2020-02-07 17:02:00-2020-02-07 17:04:00",0,0,0,1,0,0
"2020-02-07 17:04:00-2020-02-07 17:06:00",4,746,0,1,0,0
"2020-02-07 17:06:00-2020-02-07 17:08:00",2,0,0,0,0,0
"2020-02-07 17:08:00-2020-02-07 17:10:00",2,0,0,0,0,0
"2020-02-07 17:10:00-2020-02-07 17:12:00",2,0,0,0,0,0
"2020-02-07 17:12:00-2020-02-07 17:14:00",2,0,0,1,0,0
"2020-02-07 17:14:00-2020-02-07 17:16:00",1,0,0,0,0,0
"2020-02-07 17:16:00-2020-02-07 17:18:00",0,0,0,0,0,0
"2020-02-07 17:18:00-2020-02-07 17:20:00",2,0,0,0,0,0
"2020-02-07 17:20:00-2020-02-07 17:22:00",57,0,0,0,0,0
"2020-02-07 17:22:00-2020-02-07 17:24:00",1831,0,0,0,0,0
"2020-02-07 17:24:00-2020-02-07 17:26:00",0,0,0,0,0,0
"2020-02-07 17:26:00-2020-02-07 17:28:00",0,0,0,1,0,0
"2020-02-07 17:28:00-2020-02-07 17:30:00",2,0,0,1,0,0
"2020-02-07 17:30:00-2020-02-07 17:32:00",0,0,0,0,0,0
"2020-02-07 17:32:00-2020-02-07 17:34:00",301,0,0,0,0,0
"2020-02-07 17:34:00-2020-02-07 17:36:00",1,0,0,0,0,0
"2020-02-07 17:36:00-2020-02-07 17:38:00",1,0,0,0,0,0
"2020-02-07 17:38:00-2020-02-07 17:40:00",4,0,0,0,0,0
"2020-02-07 17:40:00-2020-02-07 17:42:00",99,0,0,0,0,0
"2020-02-07 17:42:00-2020-02-07 17:44:00",10,282,0,0,0,0
"2020-02-07 17:44:00-2020-02-07 17:46:00",3,1288,0,0,0,0
"2020-02-07 17:46:00-2020-02-07 17:48:00",7,0,0,0,0,0
"2020-02-07 17:48:00-2020-02-07 17:50:00",9,0,0,0,0,0
"2020-02-07 17:50:00-2020-02-07 17:52:00",4,0,0,0,0,0
"2020-02-07 17:52:00-2020-02-07 17:54:00",7,0,0,0,4,0
"2020-02-07 17:54:00-2020-02-07 17:56:00",1,0,0,0,21,0
"2020-02-07 17:56:00-2020-02-07 17:58:00",0,0,0,0,0,0
"2020-02-07 17:58:00-2020-02-07 18:00:00",2,0,0,0,0,0
"2020-02-07 18:00:00-2020-02-07 18:02:00",1,0,1936,0,0,0
"2020-02-07 18:02:00-2020-02-07 18:04:00",0,0,2295,0,0,0
"2020-02-07 18:04:00-2020-02-07 18:06:00",0,0,1221,1,0,0
"2020-02-07 18:06:00-2020-02-07 18:08:00",3,237,1524,2,0,0
"2020-02-07 18:08:00-2020-02-07 18:10:00",2,290,1071,0,0,5
"2020-02-07 18:10:00-2020-02-07 18:12:00",3,0,3061,0,0,10
"2020-02-07 18:12:00-2020-02-07 18:14:00",4,0,2123,0,0,0
"2020-02-07 18:14:00-2020-02-07 18:16:00",8,0,0,0,0,0
"2020-02-07 18:16:00-2020-02-07 18:18:00",14,0,0,0,0,0
"2020-02-07 18:18:00-2020-02-07 18:20:00",9,0,0,1,0,0
"2020-02-07 18:20:00-2020-02-07 18:22:00",17,0,0,0,0,0
"2020-02-07 18:22:00-2020-02-07 18:24:00",9,0,0,1,0,0
"2020-02-07 18:24:00-2020-02-07 18:26:00",93,0,0,0,0,0
"2020-02-07 18:26:00-2020-02-07 18:28:00",5,0,0,0,0,0
"2020-02-07 18:28:00-2020-02-07 18:30:00",15,0,0,0,0,0
"2020-02-07 18:30:00-2020-02-07 18:32:00",0,0,0,3,0,0
"2020-02-07 18:32:00-2020-02-07 18:34:00",0,0,0,0,81,0
"2020-02-07 18:34:00-2020-02-07 18:36:00",0,0,0,0,0,0
"2020-02-07 18:36:00-2020-02-07 18:38:00",3,0,0,0,1067,0
"2020-02-07 18:38:00-2020-02-07 18:40:00",7,0,0,0,0,0
"2020-02-07 18:40:00-2020-02-07 18:42:00",0,0,0,0,0,0
"2020-02-07 18:42:00-2020-02-07 18:44:00",0,0,0,0,0,0
"2020-02-07 18:44:00-2020-02-07 18:46:00",4,0,0,0,0,0
"2020-02-07 18:46:00-2020-02-07 18:48:00",6,0,0,0,0,0
"2020-02-07 18:48:00-2020-02-07 18:50:00",1,0,0,0,0,0
"2020-02-07 18:50:00-2020-02-07 18:52:00",5,0,0,1,0,0
"2020-02-07 18:52:00-2020-02-07 18:54:00",8,0,0,2,0,0
"2020-02-07 18:54:00-2020-02-07 18:56:00",2,0,0,0,0,0
"2020-02-07 18:56:00-2020-02-07 18:58:00",0,0,0,0,0,0
"2020-02-07 18:58:00-2020-02-07 19:00:00",1,0,0,3885,0,0
"2020-02-07 19:00:00-2020-02-07 19:02:00",1,0,0,0,0,0
"2020-02-07 19:02:00-2020-02-07 19:04:00",1,0,0,0,0,0
"2020-02-07 19:04:00-2020-02-07 19:06:00",1,0,0,1,0,0
"2020-02-07 19:06:00-2020-02-07 19:08:00",2,0,0,0,0,0
"2020-02-07 19:08:00-2020-02-07 19:10:00",4,0,0,0,0,0
"2020-02-07 19:10:00-2020-02-07 19:12:00",0,0,0,1,0,0
"2020-02-07 19:12:00-2020-02-07 19:14:00",1,0,0,0,0,0
"2020-02-07 19:14:00-2020-02-07 19:16:00",0,0,0,0,0,0
"2020-02-07 19:16:00-2020-02-07 19:18:00",0,0,0,0,0,0
"2020-02-07 19:18:00-2020-02-07 19:20:00",3,0,0,0,11,5
"2020-02-07 19:20:00-2020-02-07 19:22:00",1,0,0,0,0,0
"2020-02-07 19:22:00-2020-02-07 19:24:00",1,0,0,0,0,0
"2020-02-07 19:24:00-2020-02-07 19:26:00",0,0,0,0,0,0
"2020-02-07 19:26:00-2020-02-07 19:28:00",1,0,0,0,0,24
"2020-02-07 19:28:00-2020-02-07 19:30:00",0,0,0,0,0,0
"2020-02-07 19:30:00-2020-02-07 19:32:00",0,0,2347,0,0,0
"2020-02-07 19:32:00-2020-02-07 19:34:00",0,0,0,0,0,1
"2020-02-07 19:34:00-2020-02-07 19:36:00",1,0,0,0,0,0
"2020-02-07 19:36:00-2020-02-07 19:38:00",0,0,0,0,0,0
"2020-02-07 19:38:00-2020-02-07 19:40:00",0,0,0,0,0,0
"2020-02-07 19:40:00-2020-02-07 19:42:00",7,0,0,0,1,0
"2020-02-07 19:42:00-2020-02-07 19:44:00",11,0,0,0,1,0
"2020-02-07 19:44:00-2020-02-07 19:46:00",14,0,0,0,0,0
"2020-02-07 19:46:00-2020-02-07 19:48:00",13,0,0,1,0,0
"2020-02-07 19:48:00-2020-02-07 19:50:00",1,0,0,0,0,0
"2020-02-07 19:50:00-2020-02-07 19:52:00",0,0,0,0,10,0
"2020-02-07 19:52:00-2020-02-07 19:54:00",2,0,0,0,0,0
"2020-02-07 19:54:00-2020-02-07 19:56:00",1,0,0,0,0,0
"2020-02-07 19:56:00-2020-02-07 19:58:00",1,0,0,1,0,0
"2020-02-07 19:58:00-2020-02-07 20:00:00",893,0,0,0,0,0
"2020-02-07 20:00:00-2020-02-07 20:02:00",4,0,0,0,0,0
"2020-02-07 20:02:00-2020-02-07 20:04:00",0,0,0,1,0,0
"2020-02-07 20:04:00-2020-02-07 20:06:00",4,0,0,0,0,0
"2020-02-07 20:06:00-2020-02-07 20:08:00",2,0,0,0,0,0
"2020-02-07 20:08:00-2020-02-07 20:10:00",4,0,731,2,0,0
"2020-02-07 20:10:00-2020-02-07 20:12:00",1,0,1677,0,0,13
"2020-02-07 20:12:00-2020-02-07 20:14:00",11,0,0,0,0,0
"2020-02-07 20:14:00-2020-02-07 20:16:00",6,0,0,0,0,25
"2020-02-07 20:16:00-2020-02-07 20:18:00",8,0,0,0,0,0
"2020-02-07 20:18:00-2020-02-07 20:20:00",3,0,0,0,0,349
"2020-02-07 20:20:00-2020-02-07 20:22:00",2,0,0,0,0,0
"2020-02-07 20:22:00-2020-02-07 20:24:00",4,0,18,0,0,0
"2020-02-07 20:24:00-2020-02-07 20:26:00",15,0,1462,0,0,0
"2020-02-07 20:26:00-2020-02-07 20:28:00",3,0,0,987,0,0
"2020-02-07 20:28:00-2020-02-07 20:30:00",4,0,0,4340,9,0
"2020-02-07 20:30:00-2020-02-07 20:32:00",0,0,0,0,0,0
"2020-02-07 20:32:00-2020-02-07 20:34:00",2,0,0,0,47,0
"2020-02-07 20:34:00-2020-02-07 20:36:00",3,0,0,0,0,0
"2020-02-07 20:36:00-2020-02-07 20:38:00",8,502,0,0,0,0
"2020-02-07 20:38:00-2020-02-07 20:40:00",0,0,0,0,0,0
"2020-02-07 20:40:00-2020-02-07 20:42:00",138,973,487,0,0,0
"2020-02-07 20:42:00-2020-02-07 20:44:00",64,0,0,0,0,0
"2020-02-07 20:44:00-2020-02-07 20:46:00",4,0,0,0,0,0
"2020-02-07 20:46:00-2020-02-07 20:48:00",0,0,0,0,0,0
"2020-02-07 20:48:00-2020-02-07 20:50:00",24,0,0,0,0,0
"2020-02-07 20:50:00-2020-02-07 20:52:00",0,0,0,0,0,0
"2020-02-07 20:52:00-2020-02-07 20:54:00",20,0,0,0,0,0
"2020-02-07 20:54:00-2020-02-07 20:56:00",15,0,0,0,0,0
"2020-02-07 20:56:00-2020-02-07 20:58:00",355,0,0,0,461,0
"2020-02-07 20:58:00-2020-02-07 21:00:00",0,0,0,0,124,0
"2020-02-07 21:00:00-2020-02-07 21:02:00",13,147,0,376,0,0
"2020-02-07 21:02:00-2020-02-07 21:04:00",5,0,2027,0,0,0
"2020-02-07 21:04:00-2020-02-07 21:06:00",0,0,1456,0,122,0
"2020-02-07 21:06:00-2020-02-07 21:08:00",0,0,0,0,0,0
"2020-02-07 21:08:00-2020-02-07 21:10:00",0,0,0,1,0,0
"2020-02-07 21:10:00-2020-02-07 21:12:00",4,0,1,0,0,0
"2020-02-07 21:12:00-2020-02-07 21:14:00",4,0,0,0,78,0
"2020-02-07 21:14:00-2020-02-07 21:16:00",3,0,0,1,0,0
"2020-02-07 21:16:00-2020-02-07 21:18:00",8,0,0,0,0,0
"2020-02-07 21:18:00-2020-02-07 21:20:00",9,0,0,0,0,0
"2020-02-07 21:20:00-2020-02-07 21:22:00",1,0,0,0,0,0
"2020-02-07 21:22:00-2020-02-07 21:24:00",2,0,0,0,0,0
"2020-02-07 21:24:00-2020-02-07 21:26:00",0,0,0,0,0,0
"2020-02-07 21:26:00-2020-02-07 21:28:00",2,0,0,0,0,0
"2020-02-07 21:28:00-2020-02-07 21:30:00",1,0,0,0,0,0
"2020-02-07 21:30:00-2020-02-07 21:32:00",0,0,0,0,0,0
"2020-02-07 21:32:00-2020-02-07 21:34:00",0,0,0,0,0,0
"2020-02-07 21:34:00-2020-02-07 21:36:00",3,0,0,0,0,0
"2020-02-07 21:36:00-2020-02-07 21:38:00",4,0,0,0,0,0
"2020-02-07 21:38:00-2020-02-07 21:40:00",0,0,0,0,0,0
"2020-02-07 21:40:00-2020-02-07 21:42:00",0,0,0,0,0,0
"2020-02-07 21:42:00-2020-02-07 21:44:00",2,0,0,0,0,0
"2020-02-07 21:44:00-2020-02-07 21:46:00",2,0,0,0,0,0
"2020-02-07 21:46:00-2020-02-07 21:48:00",4,0,0,0,0,0
"2020-02-07 21:48:00-2020-02-07 21:50:00",8,0,0,0,0,0
"2020-02-07 21:50:00-2020-02-07 21:52:00",14,0,0,0,0,0
"2020-02-07 21:52:00-2020-02-07 21:54:00",6,0,0,0,0,0
"2020-02-07 21:54:00-2020-02-07 21:56:00",14,0,0,0,0,0
"2020-02-07 21:56:00-2020-02-07 21:58:00",2,0,0,0,0,0
"2020-02-07 21:58:00-2020-02-07 22:00:00",6,0,0,0,0,0
"2020-02-07 22:00:00-2020-02-07 22:02:00",3,0,0,0,0,0
"2020-02-07 22:02:00-2020-02-07 22:04:00",5,0,0,0,0,0
"2020-02-07 22:04:00-2020-02-07 22:06:00",5,0,0,0,0,0
"2020-02-07 22:06:00-2020-02-07 22:08:00",2,0,0,0,0,0
"2020-02-07 22:08:00-2020-02-07 22:10:00",1,0,0,0,0,0
"2020-02-07 22:10:00-2020-02-07 22:12:00",0,0,0,0,0,0
"2020-02-07 22:12:00-2020-02-07 22:14:00",4,0,0,0,0,0
"2020-02-07 22:14:00-2020-02-07 22:16:00",1,0,0,0,0,0
"2020-02-07 22:16:00-2020-02-07 22:18:00",0,0,0,0,0,0
"2020-02-07 22:18:00-2020-02-07 22:20:00",2,0,0,0,0,0
"2020-02-07 22:20:00-2020-02-07 22:22:00",0,0,0,0,0,0
"2020-02-07 22:22:00-2020-02-07 22:24:00",4,0,0,0,0,0
"2020-02-07 22:24:00-2020-02-07 22:26:00",3,0,0,0,0,0
"2020-02-07 22:26:00-2020-02-07 22:28:00",0,0,0,0,0,0
"2020-02-07 22:28:00-2020-02-07 22:30:00",0,0,0,0,0,0
"2020-02-07 22:30:00-2020-02-07 22:32:00",0,0,0,0,0,0
"2020-02-07 22:32:00-2020-02-07 22:34:00",0,0,0,0,0,0
"2020-02-07 22:34:00-2020-02-07 22:36:00",0,0,0,0,86,0
"2020-02-07 22:36:00-2020-02-07 22:38:00",10,0,0,0,0,0
"2020-02-07 22:38:00-2020-02-07 22:40:00",0,0,0,0,0,0
"2020-02-07 22:40:00-2020-02-07 22:42:00",2,0,0,0,0,0
"2020-02-07 22:42:00-2020-02-07 22:44:00",0,0,0,0,0,0
"2020-02-07 22:44:00-2020-02-07 22:46:00",0,0,0,0,0,0
"2020-02-07 22:46:00-2020-02-07 22:48:00",0,0,0,0,0,0
"2020-02-07 22:48:00-2020-02-07 22:50:00",2,0,0,0,0,0
"2020-02-07 22:50:00-2020-02-07 22:52:00",2,0,0,0,0,0
"2020-02-07 22:52:00-2020-02-07 22:54:00",0,0,0,0,0,0
"2020-02-07 22:54:00-2020-02-07 22:56:00",1,0,0,0,0,0
"2020-02-07 22:56:00-2020-02-07 22:58:00",3,0,0,0,0,0
"2020-02-07 22:58:00-2020-02-07 23:00:00",0,0,0,0,1,0
"2020-02-07 23:00:00-2020-02-07 23:02:00",2,0,0,0,0,0
"2020-02-07 23:02:00-2020-02-07 23:04:00",0,0,0,0,0,0
"2020-02-07 23:04:00-2020-02-07 23:06:00",0,0,0,0,0,0
"2020-02-07 23:06:00-2020-02-07 23:08:00",0,0,0,0,0,0
"2020-02-07 23:08:00-2020-02-07 23:10:00",1,0,0,0,0,0
"2020-02-07 23:10:00-2020-02-07 23:12:00",0,0,0,0,0,0
"2020-02-07 23:12:00-2020-02-07 23:14:00",2,0,0,0,0,0
"2020-02-07 23:14:00-2020-02-07 23:16:00",3,0,0,0,0,0
"2020-02-07 23:16:00-2020-02-07 23:18:00",6,0,0,0,0,0
"2020-02-07 23:18:00-2020-02-07 23:20:00",1,0,0,0,0,0
"2020-02-07 23:20:00-2020-02-07 23:22:00",0,0,0,0,0,0
"2020-02-07 23:22:00-2020-02-07 23:24:00",0,0,0,0,0,0
"2020-02-07 23:24:00-2020-02-07 23:26:00",0,0,0,0,0,0
"2020-02-07 23:26:00-2020-02-07 23:28:00",0,0,0,0,0,0
"2020-02-07 23:28:00-2020-02-07 23:30:00",0,0,0,0,0,0
"2020-02-07 23:30:00-2020-02-07 23:32:00",2,0,0,0,0,0
"2020-02-07 23:32:00-2020-02-07 23:34:00",2,0,0,0,0,0
"2020-02-07 23:34:00-2020-02-07 23:36:00",0,0,0,0,0,0
"2020-02-07 23:36:00-2020-02-07 23:38:00",0,0,0,0,0,1199
"2020-02-07 23:38:00-2020-02-07 23:40:00",0,0,0,0,0,2283
"2020-02-07 23:40:00-2020-02-07 23:42:00",0,0,0,0,0,686
"2020-02-07 23:42:00-2020-02-07 23:44:00",0,0,0,0,0,0
"2020-02-07 23:44:00-2020-02-07 23:46:00",0,0,0,0,0,2653
"2020-02-07 23:46:00-2020-02-07 23:48:00",0,0,0,0,0,325
"2020-02-07 23:48:00-2020-02-07 23:50:00",0,0,0,0,0,56
